TestCfg,EncodeMethod,CodecName,EncodePreset,Class,Name,Res,FPS,BitDepth,QP,POC,FrameType,Level,qindex,FrameSize,PSNR_Y,PSNR_U,PSNR_V,SSIM_Y(dB),MS-SSIM_Y(dB),VMAF_Y,VMAF_Y-NEG,PSNR-HVS,CIEDE2000,CAMBI
STILL,aom,av2,0,F1,animals_00.y4m,4032x3024,25,8,60,0, KEY ,1,60,5829949,48.664595,49.608824,50.779530,50.315953,34.279346,97.002981,96.367868,54.184410,47.789423,0.000001
STILL,aom,av2,0,F1,animals_00.y4m,4032x3024,25,8,85,0, KEY ,1,85,3785142,42.476508,45.519323,47.927076,44.408163,27.956829,96.181000,95.222470,49.097888,42.975700,0.000055
STILL,aom,av2,0,F1,animals_00.y4m,4032x3024,25,8,110,0, KEY ,1,110,1988344,36.255440,41.933823,44.960352,37.944835,21.500653,93.768964,92.425957,42.138281,38.100567,0.001028
STILL,aom,av2,0,F1,animals_00.y4m,4032x3024,25,8,135,0, KEY ,1,135,903286,31.790799,38.963627,42.151748,31.703750,17.174293,87.506277,85.573937,35.517230,34.346757,0.002576
STILL,aom,av2,0,F1,animals_00.y4m,4032x3024,25,8,160,0, KEY ,1,160,413235,28.241287,36.131041,38.989745,25.482915,13.707123,71.334290,69.253206,29.255539,31.160502,0.007614
STILL,aom,av2,0,F1,animals_00.y4m,4032x3024,25,8,185,0, KEY ,1,185,175417,24.683040,33.475200,36.292655,19.403704,10.003948,45.167778,43.515544,23.404161,27.998114,0.031289
STILL,aom,av2,0,F1,animals_03.y4m,4032x3024,25,8,60,0, KEY ,1,60,4005448,48.513250,50.462542,50.814962,45.667085,31.050572,96.586203,95.844360,52.442923,47.912293,0.000004
STILL,aom,av2,0,F1,animals_03.y4m,4032x3024,25,8,85,0, KEY ,1,85,2152307,42.459444,47.878689,48.291382,40.130655,24.800901,95.125842,94.093534,47.240272,43.771096,0.002803
STILL,aom,av2,0,F1,animals_03.y4m,4032x3024,25,8,110,0, KEY ,1,110,864144,37.316956,45.473747,46.090279,33.704139,19.083738,91.749031,90.079060,40.649240,40.001915,0.346440
STILL,aom,av2,0,F1,animals_03.y4m,4032x3024,25,8,135,0, KEY ,1,135,324369,33.983010,43.569091,44.214080,27.825695,14.898929,82.993376,80.881942,34.488233,37.308032,1.165243
STILL,aom,av2,0,F1,animals_03.y4m,4032x3024,25,8,160,0, KEY ,1,160,140374,31.463066,41.485175,41.909464,22.627201,11.933219,63.833562,62.178382,29.616113,34.925385,1.701084
STILL,aom,av2,0,F1,animals_03.y4m,4032x3024,25,8,185,0, KEY ,1,185,61872,28.771683,39.017600,39.089802,17.424811,9.266979,37.686320,36.593377,25.453560,32.268059,1.564084
STILL,aom,av2,0,F1,animals_09.y4m,4032x3024,25,8,60,0, KEY ,1,60,1071863,50.898817,55.333826,55.900868,43.399245,28.906689,96.428963,95.270728,50.400724,53.683815,0.016693
STILL,aom,av2,0,F1,animals_09.y4m,4032x3024,25,8,85,0, KEY ,1,85,537869,47.058535,52.915745,53.621674,37.477434,24.143534,95.080968,93.511692,45.755698,49.567202,0.046490
STILL,aom,av2,0,F1,animals_09.y4m,4032x3024,25,8,110,0, KEY ,1,110,255597,43.310450,50.503849,51.425496,31.412531,19.759272,91.179375,89.163534,40.770770,46.050671,0.223953
STILL,aom,av2,0,F1,animals_09.y4m,4032x3024,25,8,135,0, KEY ,1,135,110771,39.728503,47.807678,48.963549,25.374675,15.840847,80.798792,78.756765,36.176017,42.745616,0.626851
STILL,aom,av2,0,F1,animals_09.y4m,4032x3024,25,8,160,0, KEY ,1,160,45055,36.649001,44.651114,45.846746,19.788816,12.993560,61.529019,59.988774,32.627896,39.684560,0.783304
STILL,aom,av2,0,F1,animals_09.y4m,4032x3024,25,8,185,0, KEY ,1,185,19730,33.908714,41.044391,42.301886,15.076288,10.819416,41.500076,40.258836,29.647490,36.743155,1.136199
STILL,aom,av2,0,F1,buildings_02.y4m,4032x3024,25,8,60,0, KEY ,1,60,2868229,48.576782,52.569453,53.250504,41.061245,29.033222,97.185584,96.606622,49.867943,49.757606,1.202342
STILL,aom,av2,0,F1,buildings_02.y4m,4032x3024,25,8,85,0, KEY ,1,85,1476649,43.399457,49.978235,50.645125,34.974227,24.116150,96.741095,95.821729,46.036525,45.618917,8.814626
STILL,aom,av2,0,F1,buildings_02.y4m,4032x3024,25,8,110,0, KEY ,1,110,799134,39.561849,47.183563,47.898819,31.566454,21.979732,95.028313,93.685455,43.069829,42.587721,11.285996
STILL,aom,av2,0,F1,buildings_02.y4m,4032x3024,25,8,135,0, KEY ,1,135,436839,35.812351,44.462181,45.344527,28.900249,20.214852,90.698987,88.627832,39.377661,39.876969,11.156571
STILL,aom,av2,0,F1,buildings_02.y4m,4032x3024,25,8,160,0, KEY ,1,160,217534,31.654680,41.079509,42.025557,25.016749,17.571450,79.936205,77.090157,33.994601,36.671095,10.768243
STILL,aom,av2,0,F1,buildings_02.y4m,4032x3024,25,8,185,0, KEY ,1,185,98420,27.456451,38.286070,39.237841,20.487850,14.061741,61.228195,58.084844,27.933242,33.365535,7.728226
STILL,aom,av2,0,F1,buildings_03.y4m,4032x3024,25,8,60,0, KEY ,1,60,6314340,48.602275,50.551919,50.416227,49.599021,37.701743,97.080588,96.408663,55.082671,47.060150,0.002161
STILL,aom,av2,0,F1,buildings_03.y4m,4032x3024,25,8,85,0, KEY ,1,85,4326465,42.546514,47.216579,46.922712,43.716304,31.397648,96.340768,95.301970,50.153783,42.617536,0.003029
STILL,aom,av2,0,F1,buildings_03.y4m,4032x3024,25,8,110,0, KEY ,1,110,2642803,36.539221,44.241797,43.699255,37.467309,25.388279,94.088414,92.636474,43.907807,38.180676,0.004314
STILL,aom,av2,0,F1,buildings_03.y4m,4032x3024,25,8,135,0, KEY ,1,135,1391251,31.288989,41.359114,40.685142,31.148378,20.226506,88.022402,86.067459,36.892519,33.968309,0.017063
STILL,aom,av2,0,F1,buildings_03.y4m,4032x3024,25,8,160,0, KEY ,1,160,636123,26.832123,38.496527,37.607138,24.829618,15.424199,71.984578,69.962182,29.394736,30.068244,0.033544
STILL,aom,av2,0,F1,buildings_03.y4m,4032x3024,25,8,185,0, KEY ,1,185,258996,22.977329,36.586710,35.837856,18.634644,11.064306,45.320884,43.711268,22.697652,26.551133,0.095032
STILL,aom,av2,0,F1,church.y4m,6000x4000,25,8,60,0, KEY ,1,60,1882022,51.042788,51.960367,52.011269,43.967048,28.463509,96.314011,95.400965,48.891066,51.556330,0.667743
STILL,aom,av2,0,F1,church.y4m,6000x4000,25,8,85,0, KEY ,1,85,750001,47.513509,49.404271,49.622860,37.896723,24.466002,94.369536,93.067023,45.367029,48.240686,1.829395
STILL,aom,av2,0,F1,church.y4m,6000x4000,25,8,110,0, KEY ,1,110,351608,44.779075,47.007027,47.495072,32.836559,21.517179,90.148804,88.345255,42.150857,45.795836,2.263469
STILL,aom,av2,0,F1,church.y4m,6000x4000,25,8,135,0, KEY ,1,135,166805,41.724797,44.321757,45.168675,27.470778,18.289630,80.528913,78.417590,38.332523,43.196785,2.595707
STILL,aom,av2,0,F1,church.y4m,6000x4000,25,8,160,0, KEY ,1,160,72478,38.368709,41.255364,42.575384,22.026835,14.872127,61.849415,59.691539,34.296374,40.290764,3.079544
STILL,aom,av2,0,F1,church.y4m,6000x4000,25,8,185,0, KEY ,1,185,28065,35.104211,37.870693,39.670786,16.841502,11.767516,36.952795,35.333903,30.625498,37.224363,3.747894
STILL,aom,av2,0,F1,fireworks_01.y4m,4032x3024,25,8,60,0, KEY ,1,60,4354156,48.768542,54.752268,53.025926,41.521024,29.929189,96.348915,95.709085,52.941492,51.801115,0.000008
STILL,aom,av2,0,F1,fireworks_01.y4m,4032x3024,25,8,85,0, KEY ,1,85,2533657,42.490731,51.795220,50.894708,35.670905,23.521534,94.807745,93.833804,47.535678,46.850352,0.000178
STILL,aom,av2,0,F1,fireworks_01.y4m,4032x3024,25,8,110,0, KEY ,1,110,934584,36.386659,48.396455,48.135951,28.988350,16.592305,90.779977,89.364223,39.843607,41.720013,0.002639
STILL,aom,av2,0,F1,fireworks_01.y4m,4032x3024,25,8,135,0, KEY ,1,135,179718,32.677385,46.632469,46.615410,22.486268,10.774801,81.123258,79.615100,33.035741,38.608547,0.522317
STILL,aom,av2,0,F1,fireworks_01.y4m,4032x3024,25,8,160,0, KEY ,1,160,45911,31.354985,43.715282,43.651258,16.503679,8.515118,64.154181,62.986300,30.077817,37.066694,12.504885
STILL,aom,av2,0,F1,fireworks_01.y4m,4032x3024,25,8,185,0, KEY ,1,185,20571,30.409715,40.600428,39.872703,14.361973,7.958677,48.452602,47.609974,28.311028,35.501067,13.288305
STILL,aom,av2,0,F1,flowerfield.y4m,3696x2448,25,8,60,0, KEY ,1,60,1312699,52.252187,51.629845,52.060857,48.355538,33.064079,96.920424,96.153392,53.126084,54.262196,0.002575
STILL,aom,av2,0,F1,flowerfield.y4m,3696x2448,25,8,85,0, KEY ,1,85,675095,47.137423,46.844215,47.465887,41.528379,27.157160,95.586601,94.444504,47.289978,48.514441,0.007882
STILL,aom,av2,0,F1,flowerfield.y4m,3696x2448,25,8,110,0, KEY ,1,110,352278,43.384594,42.910945,43.740304,35.653743,23.408529,92.420920,90.771470,42.046158,44.883466,0.008004
STILL,aom,av2,0,F1,flowerfield.y4m,3696x2448,25,8,135,0, KEY ,1,135,185681,39.680131,39.262481,40.260391,29.805665,19.721878,84.543695,82.508713,36.785734,41.368037,0.009542
STILL,aom,av2,0,F1,flowerfield.y4m,3696x2448,25,8,160,0, KEY ,1,160,94236,35.766735,35.721558,36.731659,23.940927,15.990487,67.345863,65.322095,31.753974,37.684477,0.014245
STILL,aom,av2,0,F1,flowerfield.y4m,3696x2448,25,8,185,0, KEY ,1,185,45803,31.867038,32.479817,33.339861,18.574367,12.466852,41.233290,39.599943,27.231215,34.043251,0.021002
STILL,aom,av2,0,F1,flowers_08.y4m,4032x3024,25,8,60,0, KEY ,1,60,5341961,48.521496,49.864185,51.038642,50.152049,32.954885,97.076600,96.473639,53.712560,48.636972,0.009692
STILL,aom,av2,0,F1,flowers_08.y4m,4032x3024,25,8,85,0, KEY ,1,85,3297869,42.521114,45.353636,47.326755,44.118065,26.835193,96.349750,95.406045,48.458643,43.559197,0.017793
STILL,aom,av2,0,F1,flowers_08.y4m,4032x3024,25,8,110,0, KEY ,1,110,1826344,37.240339,41.461334,43.684077,37.811440,21.895258,94.176677,92.761588,42.008018,39.117874,0.040567
STILL,aom,av2,0,F1,flowers_08.y4m,4032x3024,25,8,135,0, KEY ,1,135,950174,32.783626,38.193403,40.342414,31.782638,17.960825,88.157245,86.133019,35.709121,35.321469,0.067601
STILL,aom,av2,0,F1,flowers_08.y4m,4032x3024,25,8,160,0, KEY ,1,160,445888,28.656303,34.987494,37.223047,25.557007,13.934596,72.503520,70.366356,29.407185,31.758257,0.097095
STILL,aom,av2,0,F1,flowers_08.y4m,4032x3024,25,8,185,0, KEY ,1,185,194949,24.896302,31.658545,34.202565,19.548825,10.076675,48.051587,46.284362,23.448844,28.289674,0.178135
STILL,aom,av2,0,F1,flowers_12.y4m,4032x3024,25,8,60,0, KEY ,1,60,4143634,48.353762,51.639681,52.809069,51.278099,33.347155,97.086443,96.575921,53.849546,48.791243,0.000112
STILL,aom,av2,0,F1,flowers_12.y4m,4032x3024,25,8,85,0, KEY ,1,85,2350773,42.586672,48.530268,50.026714,45.274906,27.375175,96.351401,95.591290,48.601817,43.991754,0.000284
STILL,aom,av2,0,F1,flowers_12.y4m,4032x3024,25,8,110,0, KEY ,1,110,1165826,37.680336,45.543453,47.118946,39.060306,22.370243,94.660794,93.298685,41.975879,39.851505,0.000982
STILL,aom,av2,0,F1,flowers_12.y4m,4032x3024,25,8,135,0, KEY ,1,135,563369,33.920769,42.524617,44.241853,32.870516,18.506300,89.319106,87.396814,35.639082,36.474170,0.024643
STILL,aom,av2,0,F1,flowers_12.y4m,4032x3024,25,8,160,0, KEY ,1,160,278666,30.509241,39.064301,40.793859,26.756308,14.810242,75.911008,73.741018,29.658995,33.160418,0.046735
STILL,aom,av2,0,F1,flowers_12.y4m,4032x3024,25,8,185,0, KEY ,1,185,133330,26.878449,36.390313,37.647697,20.590098,10.984463,54.284189,52.399188,24.237232,29.896621,0.066712
STILL,aom,av2,0,F1,food_02.y4m,4032x3024,25,8,60,0, KEY ,1,60,3078185,48.167520,53.023490,53.978139,45.205694,29.467260,97.009106,96.311135,52.020586,50.347577,0.000379
STILL,aom,av2,0,F1,food_02.y4m,4032x3024,25,8,85,0, KEY ,1,85,1444505,42.809857,50.119566,51.549035,38.596065,23.237122,96.262539,95.212754,46.378151,45.531256,0.007687
STILL,aom,av2,0,F1,food_02.y4m,4032x3024,25,8,110,0, KEY ,1,110,613136,38.697395,47.197900,48.923637,32.277706,18.118171,93.885482,92.334890,39.927555,41.779415,0.053650
STILL,aom,av2,0,F1,food_02.y4m,4032x3024,25,8,135,0, KEY ,1,135,255604,35.607911,44.348226,46.168308,27.128900,14.930158,86.697764,84.675374,35.020722,38.943865,0.211391
STILL,aom,av2,0,F1,food_02.y4m,4032x3024,25,8,160,0, KEY ,1,160,110068,32.778855,40.739785,42.719662,21.673239,12.264045,71.033024,68.824551,30.735824,36.241770,0.444972
STILL,aom,av2,0,F1,food_02.y4m,4032x3024,25,8,185,0, KEY ,1,185,44486,29.751963,37.465127,39.558366,16.375929,9.521053,49.764028,47.907026,26.631614,33.435397,1.394531
STILL,aom,av2,0,F1,fountain.y4m,6406x4270,25,8,60,0, KEY ,1,60,7360522,48.443051,51.665669,52.062376,48.518079,29.623270,96.604771,95.678652,51.619193,50.868663,0.000075
STILL,aom,av2,0,F1,fountain.y4m,6406x4270,25,8,85,0, KEY ,1,85,3818017,42.844793,48.796850,49.347807,42.609321,23.677985,95.236967,93.961003,46.592491,45.888240,0.001047
STILL,aom,av2,0,F1,fountain.y4m,6406x4270,25,8,110,0, KEY ,1,110,1398502,37.969016,45.812149,46.417366,36.487243,18.169049,91.584455,89.918502,40.458683,41.396714,0.002120
STILL,aom,av2,0,F1,fountain.y4m,6406x4270,25,8,135,0, KEY ,1,135,469687,35.073126,42.825255,43.356543,30.765493,14.984991,83.538402,81.377653,35.677714,38.546061,0.518446
STILL,aom,av2,0,F1,fountain.y4m,6406x4270,25,8,160,0, KEY ,1,160,210327,32.993093,39.455670,39.894424,25.381819,12.915496,67.013871,64.754174,31.504022,36.306606,0.598957
STILL,aom,av2,0,F1,fountain.y4m,6406x4270,25,8,185,0, KEY ,1,185,88812,30.370498,35.833303,36.332008,20.079472,10.359171,41.358977,39.638192,27.245310,33.610311,0.463621
STILL,aom,av2,0,F1,lady.y4m,4480x6720,25,8,60,0, KEY ,1,60,5332304,48.273367,55.594716,55.361659,44.734408,27.202857,96.294070,95.465328,49.575767,49.757445,0.220873
STILL,aom,av2,0,F1,lady.y4m,4480x6720,25,8,85,0, KEY ,1,85,1616653,42.733033,53.473619,53.169679,38.085789,20.712672,95.017053,93.875269,44.170404,44.690719,1.140037
STILL,aom,av2,0,F1,lady.y4m,4480x6720,25,8,110,0, KEY ,1,110,374229,40.313075,51.339224,50.899936,32.983774,17.785036,91.723682,90.130625,40.772763,42.337200,5.796549
STILL,aom,av2,0,F1,lady.y4m,4480x6720,25,8,135,0, KEY ,1,135,154211,38.926902,48.855198,48.517030,28.466674,16.111361,83.047083,81.265241,38.025970,41.000631,5.740880
STILL,aom,av2,0,F1,lady.y4m,4480x6720,25,8,160,0, KEY ,1,160,61709,37.172778,46.091139,45.573044,23.353454,14.166471,65.539454,63.944665,34.988688,39.304063,5.426249
STILL,aom,av2,0,F1,lady.y4m,4480x6720,25,8,185,0, KEY ,1,185,23944,35.139415,43.042452,42.293406,18.090072,12.116297,41.677758,40.523536,31.995657,37.131016,5.149098
STILL,aom,av2,0,F1,landscape_05.y4m,4032x3024,25,8,60,0, KEY ,1,60,4383754,48.531409,50.881858,51.612061,47.791157,31.675752,96.925288,96.313215,53.156664,49.425567,0.000002
STILL,aom,av2,0,F1,landscape_05.y4m,4032x3024,25,8,85,0, KEY ,1,85,2586277,42.739790,47.257854,48.305519,41.766667,25.650957,96.033416,95.106565,47.880832,44.335713,0.000229
STILL,aom,av2,0,F1,landscape_05.y4m,4032x3024,25,8,110,0, KEY ,1,110,1287166,37.545400,43.683526,44.738531,35.885330,20.127170,93.631195,92.178759,41.188016,39.757699,0.020856
STILL,aom,av2,0,F1,landscape_05.y4m,4032x3024,25,8,135,0, KEY ,1,135,628142,33.782483,40.410165,41.447889,30.080790,16.546043,86.479291,84.685682,35.286862,36.359480,0.060376
STILL,aom,av2,0,F1,landscape_05.y4m,4032x3024,25,8,160,0, KEY ,1,160,300516,30.192238,37.245829,38.211306,23.916238,13.148895,69.916281,68.058232,29.581777,33.154502,0.130942
STILL,aom,av2,0,F1,landscape_05.y4m,4032x3024,25,8,185,0, KEY ,1,185,130557,26.482221,33.975402,35.036403,18.180333,9.732022,45.040717,43.592355,24.137261,29.821123,0.393746
STILL,aom,av2,0,F1,landscape_15.y4m,4032x3024,25,8,60,0, KEY ,1,60,2869000,49.205878,53.139016,53.732841,43.421954,29.904637,97.002978,96.270787,50.824293,50.196980,1.154586
STILL,aom,av2,0,F1,landscape_15.y4m,4032x3024,25,8,85,0, KEY ,1,85,1650389,43.988458,50.437156,51.218942,37.724733,24.906568,96.156899,95.100910,46.661374,45.849361,3.009328
STILL,aom,av2,0,F1,landscape_15.y4m,4032x3024,25,8,110,0, KEY ,1,110,835026,39.155311,47.458650,48.602899,33.242981,20.655722,93.767895,92.183828,41.769291,41.964341,3.455093
STILL,aom,av2,0,F1,landscape_15.y4m,4032x3024,25,8,135,0, KEY ,1,135,395473,35.227384,44.466501,46.004112,28.309342,17.163290,86.937201,84.969553,36.593432,38.696499,3.356193
STILL,aom,av2,0,F1,landscape_15.y4m,4032x3024,25,8,160,0, KEY ,1,160,179682,31.670934,41.120503,42.824882,23.301380,13.879031,71.883006,69.683053,31.184700,35.544212,3.405344
STILL,aom,av2,0,F1,landscape_15.y4m,4032x3024,25,8,185,0, KEY ,1,185,74414,28.192422,38.329792,39.908396,18.549346,10.818503,48.899714,46.966151,26.052308,32.590391,3.281428
STILL,aom,av2,0,F1,landscape_16.y4m,4032x3024,25,8,60,0, KEY ,1,60,1559239,50.146540,56.630840,57.525301,42.076866,29.215234,96.833583,96.067086,51.003455,52.375690,0.000003
STILL,aom,av2,0,F1,landscape_16.y4m,4032x3024,25,8,85,0, KEY ,1,85,869443,45.930239,54.343195,55.008329,35.942920,24.186666,95.951214,94.701341,46.168447,48.150359,0.000035
STILL,aom,av2,0,F1,landscape_16.y4m,4032x3024,25,8,110,0, KEY ,1,110,458307,41.762261,51.966119,52.427364,29.989714,19.605296,93.333630,91.545558,40.875320,44.448175,0.000276
STILL,aom,av2,0,F1,landscape_16.y4m,4032x3024,25,8,135,0, KEY ,1,135,230241,37.861634,49.499313,50.107239,24.971786,15.934672,85.672281,83.503206,36.034638,41.080856,0.035145
STILL,aom,av2,0,F1,landscape_16.y4m,4032x3024,25,8,160,0, KEY ,1,160,108306,34.128168,46.328328,47.291715,20.591581,12.793524,68.107031,66.183040,31.388155,37.115400,0.247344
STILL,aom,av2,0,F1,landscape_16.y4m,4032x3024,25,8,185,0, KEY ,1,185,46143,30.511545,43.138492,44.821399,15.811152,9.815858,43.903807,42.798016,27.002393,33.736988,0.788780
STILL,aom,av2,0,F1,landscape_18.y4m,4032x3024,25,8,60,0, KEY ,1,60,2606014,49.294545,54.071977,55.624564,40.255134,29.429311,96.925532,96.150882,49.917499,50.752596,1.203891
STILL,aom,av2,0,F1,landscape_18.y4m,4032x3024,25,8,85,0, KEY ,1,85,1481959,44.201575,51.436996,53.119774,35.078822,25.275529,95.903296,94.798827,46.889561,46.558716,1.260671
STILL,aom,av2,0,F1,landscape_18.y4m,4032x3024,25,8,110,0, KEY ,1,110,618945,38.938139,48.665986,50.468388,31.146018,20.437993,93.030789,91.523519,42.324384,42.548052,1.334073
STILL,aom,av2,0,F1,landscape_18.y4m,4032x3024,25,8,135,0, KEY ,1,135,244941,35.561525,46.539764,48.270182,26.810615,16.679807,85.564831,83.557529,37.073815,39.834613,1.382253
STILL,aom,av2,0,F1,landscape_18.y4m,4032x3024,25,8,160,0, KEY ,1,160,100964,32.730117,43.982082,45.427470,21.522237,13.533110,68.103901,66.119283,32.232167,37.224280,1.452538
STILL,aom,av2,0,F1,landscape_18.y4m,4032x3024,25,8,185,0, KEY ,1,185,38014,29.861106,41.098035,42.315632,16.621582,10.766084,44.860380,43.137628,27.906474,34.279715,1.715867
STILL,aom,av2,0,F1,landscape_25.y4m,4032x3024,25,8,60,0, KEY ,1,60,5183931,48.709780,49.026080,50.695897,42.251544,31.273648,96.491090,95.620905,53.014931,46.829710,0.006304
STILL,aom,av2,0,F1,landscape_25.y4m,4032x3024,25,8,85,0, KEY ,1,85,3159784,42.541737,45.355106,48.276219,36.567530,24.883494,94.843852,93.672046,47.957508,42.374914,0.005982
STILL,aom,av2,0,F1,landscape_25.y4m,4032x3024,25,8,110,0, KEY ,1,110,1473556,36.405573,43.158259,46.037144,30.152585,18.365300,91.363118,89.450702,40.901839,38.402175,0.024651
STILL,aom,av2,0,F1,landscape_25.y4m,4032x3024,25,8,135,0, KEY ,1,135,468425,31.781361,42.056873,45.003530,23.720752,12.273712,80.559540,78.433363,33.455968,35.302653,0.655580
STILL,aom,av2,0,F1,landscape_25.y4m,4032x3024,25,8,160,0, KEY ,1,160,89053,28.814063,40.971358,43.643753,17.693907,7.683973,60.014265,58.409624,27.811079,32.973917,4.578347
STILL,aom,av2,0,F1,landscape_25.y4m,4032x3024,25,8,185,0, KEY ,1,185,27672,27.593693,39.352451,41.575159,13.901848,6.339037,40.942621,39.828981,25.548763,31.666023,6.839335
STILL,aom,av2,0,F1,landscape_26.y4m,4032x3024,25,8,60,0, KEY ,1,60,3047942,48.816307,52.907037,53.103066,42.912326,29.407155,96.866690,95.956459,50.593994,49.829522,0.540000
STILL,aom,av2,0,F1,landscape_26.y4m,4032x3024,25,8,85,0, KEY ,1,85,1624853,43.335049,50.672791,51.083297,37.183502,24.201613,95.748201,94.467659,46.469481,45.506993,0.675621
STILL,aom,av2,0,F1,landscape_26.y4m,4032x3024,25,8,110,0, KEY ,1,110,701107,38.525997,48.037316,48.700927,32.093601,19.740305,92.586329,90.777741,41.467524,41.636641,0.733441
STILL,aom,av2,0,F1,landscape_26.y4m,4032x3024,25,8,135,0, KEY ,1,135,297017,35.182991,45.474753,46.213504,27.012596,16.358423,84.032669,81.761997,36.417451,38.828387,0.752725
STILL,aom,av2,0,F1,landscape_26.y4m,4032x3024,25,8,160,0, KEY ,1,160,124444,32.053070,43.084707,44.169598,21.597194,13.065530,65.574068,63.198668,31.400210,36.212316,0.756012
STILL,aom,av2,0,F1,landscape_26.y4m,4032x3024,25,8,185,0, KEY ,1,185,46381,28.882929,41.283470,42.269404,16.407881,9.797739,39.613255,37.880207,26.714928,33.579288,0.919668
STILL,aom,av2,0,F1,landscape_28.y4m,4032x3024,25,8,60,0, KEY ,1,60,3337176,48.659169,51.019589,52.617314,38.856662,29.123135,97.056330,96.467670,50.781235,50.010920,0.544380
STILL,aom,av2,0,F1,landscape_28.y4m,4032x3024,25,8,85,0, KEY ,1,85,1781186,43.252606,47.808620,49.538467,33.529135,23.401001,96.324850,95.428679,46.199360,45.996990,1.897838
STILL,aom,av2,0,F1,landscape_28.y4m,4032x3024,25,8,110,0, KEY ,1,110,871548,38.739924,44.803631,46.392168,29.782706,18.708170,94.355944,92.934034,40.636854,42.445687,5.616864
STILL,aom,av2,0,F1,landscape_28.y4m,4032x3024,25,8,135,0, KEY ,1,135,408243,35.008673,42.161258,43.616846,26.792149,16.306223,88.496130,86.586183,36.389307,39.429009,10.089798
STILL,aom,av2,0,F1,landscape_28.y4m,4032x3024,25,8,160,0, KEY ,1,160,182733,31.564707,39.137967,40.605699,23.320967,14.137851,74.201724,72.158737,31.494964,36.348908,10.267914
STILL,aom,av2,0,F1,landscape_28.y4m,4032x3024,25,8,185,0, KEY ,1,185,77589,28.226413,36.340693,37.936358,17.969223,11.450417,51.634317,49.919530,26.381606,33.090671,8.478286
STILL,aom,av2,0,F1,lodge.y4m,6000x4000,25,8,60,0, KEY ,1,60,6735337,48.392672,50.979625,51.413239,44.696076,29.361099,96.532274,95.554932,50.965737,49.199138,0.000009
STILL,aom,av2,0,F1,lodge.y4m,6000x4000,25,8,85,0, KEY ,1,85,3579465,43.198071,46.895168,48.145788,39.051974,23.936311,94.939968,93.613024,46.486148,44.362721,0.024430
STILL,aom,av2,0,F1,lodge.y4m,6000x4000,25,8,110,0, KEY ,1,110,1675530,38.778176,43.043034,45.039070,33.695037,19.311125,90.844927,89.190726,41.141721,40.374901,0.580320
STILL,aom,av2,0,F1,lodge.y4m,6000x4000,25,8,135,0, KEY ,1,135,802922,35.136295,39.926561,42.306290,28.256695,16.026869,81.007117,79.094362,35.835890,37.268080,0.933866
STILL,aom,av2,0,F1,lodge.y4m,6000x4000,25,8,160,0, KEY ,1,160,334583,31.361844,37.199797,39.869108,22.611776,12.480076,59.366277,57.591911,30.115182,34.109949,1.210946
STILL,aom,av2,0,F1,lodge.y4m,6000x4000,25,8,185,0, KEY ,1,185,108938,27.911358,35.023745,37.870425,17.051990,9.017874,28.116700,27.091480,25.056548,31.172808,1.243144
STILL,aom,av2,0,F1,party.y4m,6720x4480,25,8,60,0, KEY ,1,60,4772348,48.118471,56.628309,56.958727,44.205805,26.798712,96.752877,96.094267,49.244820,50.047432,0.000084
STILL,aom,av2,0,F1,party.y4m,6720x4480,25,8,85,0, KEY ,1,85,1049698,42.701423,54.771431,55.151093,37.044985,20.211967,96.379173,95.450151,43.662506,44.795303,1.416832
STILL,aom,av2,0,F1,party.y4m,6720x4480,25,8,110,0, KEY ,1,110,215042,40.916241,52.656187,53.070500,31.472430,17.661191,94.580461,93.213165,40.677126,42.987800,7.833838
STILL,aom,av2,0,F1,party.y4m,6720x4480,25,8,135,0, KEY ,1,135,90646,40.032825,49.996980,50.581275,26.752997,16.667539,89.836418,88.050834,39.133182,42.063782,9.756948
STILL,aom,av2,0,F1,party.y4m,6720x4480,25,8,160,0, KEY ,1,160,41652,38.727857,46.279707,46.790775,22.587613,15.727329,79.834842,77.642642,36.995129,40.476458,10.237189
STILL,aom,av2,0,F1,party.y4m,6720x4480,25,8,185,0, KEY ,1,185,18910,36.738281,42.446099,42.508987,19.274388,14.548106,61.488977,59.468950,33.911897,37.960145,10.023401
STILL,aom,av2,0,F1,river.y4m,5184x3456,25,8,60,0, KEY ,1,60,2413882,48.216964,52.903235,53.518810,45.715074,27.530151,95.677908,94.671078,49.584447,48.032075,0.000648
STILL,aom,av2,0,F1,river.y4m,5184x3456,25,8,85,0, KEY ,1,85,621970,44.024076,50.038851,50.950544,39.407406,22.057001,93.840194,92.221171,44.592183,44.340040,0.265313
STILL,aom,av2,0,F1,river.y4m,5184x3456,25,8,110,0, KEY ,1,110,277349,42.494003,47.050145,48.337712,33.316242,19.868454,89.198419,87.386308,41.348387,42.563949,0.551173
STILL,aom,av2,0,F1,river.y4m,5184x3456,25,8,135,0, KEY ,1,135,138663,40.532087,44.070121,46.098575,27.830562,17.638608,79.310269,77.451156,37.876878,40.707303,0.716243
STILL,aom,av2,0,F1,river.y4m,5184x3456,25,8,160,0, KEY ,1,160,65745,37.788885,41.146271,44.073164,22.654352,14.988629,61.045764,59.359919,34.028223,38.257650,0.851276
STILL,aom,av2,0,F1,river.y4m,5184x3456,25,8,185,0, KEY ,1,185,28762,34.582629,38.165280,41.835971,17.851520,12.091402,36.256531,34.940338,30.258681,35.263974,1.126934
STILL,aom,av2,0,F1,santa.y4m,5616x3744,25,8,60,0, KEY ,1,60,2465117,48.315904,53.783580,53.205108,44.436830,27.110357,96.215587,95.330877,49.018271,50.643872,0.517527
STILL,aom,av2,0,F1,santa.y4m,5616x3744,25,8,85,0, KEY ,1,85,592821,44.270999,51.536180,50.945536,38.190321,22.033399,94.536055,93.275635,44.535866,46.788961,2.809836
STILL,aom,av2,0,F1,santa.y4m,5616x3744,25,8,110,0, KEY ,1,110,256904,42.871546,49.343611,48.545130,33.737675,20.315620,90.540250,88.819507,42.089716,45.188741,3.179551
STILL,aom,av2,0,F1,santa.y4m,5616x3744,25,8,135,0, KEY ,1,135,125477,41.105868,46.703194,45.644763,28.875003,18.297877,81.627066,79.685211,39.013779,43.283346,3.255193
STILL,aom,av2,0,F1,santa.y4m,5616x3744,25,8,160,0, KEY ,1,160,58358,38.699726,43.503452,42.358602,23.666582,15.805590,64.076482,62.035835,35.444785,40.715987,3.099556
STILL,aom,av2,0,F1,santa.y4m,5616x3744,25,8,185,0, KEY ,1,185,26077,35.941217,40.019513,38.866964,18.680861,13.253875,38.249756,36.159906,31.928513,37.638571,3.021516
STILL,aom,av2,0,F1,seafood.y4m,5184x3456,25,8,60,0, KEY ,1,60,4510029,48.211079,52.294949,52.376342,47.277902,29.219948,96.584470,95.735108,51.257865,48.600141,0.000000
STILL,aom,av2,0,F1,seafood.y4m,5184x3456,25,8,85,0, KEY ,1,85,1970497,42.538063,49.127718,49.370107,40.645516,22.768727,95.074711,93.892781,45.700255,43.863241,0.238226
STILL,aom,av2,0,F1,seafood.y4m,5184x3456,25,8,110,0, KEY ,1,110,715857,38.928839,45.863926,46.297194,34.658080,18.690322,91.579487,89.888228,40.544642,40.554021,1.291031
STILL,aom,av2,0,F1,seafood.y4m,5184x3456,25,8,135,0, KEY ,1,135,336549,36.436559,42.816895,43.276458,29.544138,16.453961,83.288712,81.164120,36.221429,38.179559,1.373180
STILL,aom,av2,0,F1,seafood.y4m,5184x3456,25,8,160,0, KEY ,1,160,149769,33.468986,39.939642,40.223936,24.239891,13.608762,65.530876,63.365292,31.333022,35.553956,1.439259
STILL,aom,av2,0,F1,seafood.y4m,5184x3456,25,8,185,0, KEY ,1,185,60299,30.350355,37.224958,37.440103,18.931367,10.535853,37.784073,36.208389,26.869790,32.790557,1.300292
STILL,aom,av2,0,F1,snow_00.y4m,4032x3024,25,8,60,0, KEY ,1,60,3699749,48.274180,53.393756,53.971097,43.216299,28.781676,96.852744,96.080089,51.562245,50.197587,0.000000
STILL,aom,av2,0,F1,snow_00.y4m,4032x3024,25,8,85,0, KEY ,1,85,1928671,42.240413,50.423702,51.028732,36.828911,22.260548,96.049820,94.952750,45.811446,45.165439,0.000021
STILL,aom,av2,0,F1,snow_00.y4m,4032x3024,25,8,110,0, KEY ,1,110,621035,37.032701,48.066101,48.339480,30.639813,16.037546,93.623252,92.133414,39.190040,40.895240,0.001017
STILL,aom,av2,0,F1,snow_00.y4m,4032x3024,25,8,135,0, KEY ,1,135,214556,34.636866,45.919783,46.204898,26.133153,13.770730,86.449162,84.601457,35.602153,38.785515,0.041053
STILL,aom,av2,0,F1,snow_00.y4m,4032x3024,25,8,160,0, KEY ,1,160,97670,32.645379,43.162792,43.792434,21.563522,12.295338,71.275766,69.350220,32.057348,36.816287,0.056518
STILL,aom,av2,0,F1,snow_00.y4m,4032x3024,25,8,185,0, KEY ,1,185,42933,30.123537,40.747345,41.428109,16.925900,10.471622,49.168092,47.621961,27.963768,34.806828,0.076070
STILL,aom,av2,0,F1,trees.y4m,4928x3264,25,8,60,0, KEY ,1,60,3398302,48.781373,52.184308,52.164012,46.732699,30.947272,96.820945,96.038797,52.334994,47.692945,0.000242
STILL,aom,av2,0,F1,trees.y4m,4928x3264,25,8,85,0, KEY ,1,85,1794547,44.270561,48.816766,48.853191,40.663574,25.772500,95.811998,94.529359,47.297654,43.798013,0.001746
STILL,aom,av2,0,F1,trees.y4m,4928x3264,25,8,110,0, KEY ,1,110,934001,40.355415,45.256686,45.529225,34.503489,21.030915,92.888918,90.955237,41.339076,40.372843,0.006153
STILL,aom,av2,0,F1,trees.y4m,4928x3264,25,8,135,0, KEY ,1,135,482537,36.477510,41.863430,42.755227,28.355184,16.543727,84.796770,82.446228,35.458019,37.047995,0.029402
STILL,aom,av2,0,F1,trees.y4m,4928x3264,25,8,160,0, KEY ,1,160,225906,32.435306,38.776646,40.311856,22.035223,12.307740,66.274669,64.105009,29.903828,33.713857,0.153492
STILL,aom,av2,0,F1,trees.y4m,4928x3264,25,8,185,0, KEY ,1,185,92474,28.638141,35.990522,38.133314,15.949506,8.803658,40.844834,39.542279,25.131485,30.624100,0.563726
STILL,aom,av2,0,F1,underwater_01.y4m,4032x3024,25,8,60,0, KEY ,1,60,3571384,48.353892,50.663492,51.269742,47.949676,30.839635,96.533023,95.653623,52.961558,48.626373,0.001220
STILL,aom,av2,0,F1,underwater_01.y4m,4032x3024,25,8,85,0, KEY ,1,85,1688631,42.462621,47.455801,48.194535,41.606365,24.583977,94.685356,93.589670,47.054208,43.865615,0.011251
STILL,aom,av2,0,F1,underwater_01.y4m,4032x3024,25,8,110,0, KEY ,1,110,656886,38.257888,44.143682,45.079027,35.209987,19.813295,90.643282,89.008819,40.440357,40.174531,0.027721
STILL,aom,av2,0,F1,underwater_01.y4m,4032x3024,25,8,135,0, KEY ,1,135,297242,35.624504,40.656889,41.770369,29.329738,16.613167,80.753235,78.794670,35.074558,37.476278,0.055689
STILL,aom,av2,0,F1,underwater_01.y4m,4032x3024,25,8,160,0, KEY ,1,160,139227,32.887775,36.803441,38.312822,23.089403,13.220018,59.266831,57.685518,30.101752,34.587371,0.073801
STILL,aom,av2,0,F1,underwater_01.y4m,4032x3024,25,8,185,0, KEY ,1,185,58829,29.736058,33.416605,35.575056,17.050835,9.724454,29.759345,28.834596,25.716756,31.624143,0.221874
STILL,aom,av2,0,F2,Adventure_with_the_Windmills.y4m,896x1110,24,8,60,0, KEY ,1,60,588866,48.527322,50.152568,52.051262,39.304742,36.413833,97.000128,96.156822,53.218904,46.457003,0.001459
STILL,aom,av2,0,F2,Adventure_with_the_Windmills.y4m,896x1110,24,8,85,0, KEY ,1,85,443152,42.818525,48.256569,50.392503,33.276979,30.804384,96.074894,94.869667,50.051622,42.776983,0.003657
STILL,aom,av2,0,F2,Adventure_with_the_Windmills.y4m,896x1110,24,8,110,0, KEY ,1,110,312205,36.671489,45.837930,46.994381,26.830783,24.494080,93.471034,91.884644,44.451346,38.158364,0.007708
STILL,aom,av2,0,F2,Adventure_with_the_Windmills.y4m,896x1110,24,8,135,0, KEY ,1,135,196091,30.748085,43.458875,41.925687,20.347862,18.314700,86.098043,84.263228,36.816663,33.279386,0.001627
STILL,aom,av2,0,F2,Adventure_with_the_Windmills.y4m,896x1110,24,8,160,0, KEY ,1,160,94884,24.837260,44.026920,41.059666,14.257366,12.637939,67.093301,65.244475,29.096801,28.497062,0.003623
STILL,aom,av2,0,F2,Adventure_with_the_Windmills.y4m,896x1110,24,8,185,0, KEY ,1,185,24600,19.908741,39.300823,41.249127,9.197568,7.659690,35.768954,34.416743,21.967851,23.580976,0.016076
STILL,aom,av2,0,F2,Agapanthus_Postbloom2.y4m,1208x948,24,8,60,0, KEY ,1,60,140874,49.091366,50.236212,49.973115,33.507602,29.475096,96.873092,96.203969,49.767771,48.080810,3.295854
STILL,aom,av2,0,F2,Agapanthus_Postbloom2.y4m,1208x948,24,8,85,0, KEY ,1,85,77977,46.362192,47.314941,48.146274,30.053450,27.201890,95.653103,94.681733,47.155909,45.521431,3.801894
STILL,aom,av2,0,F2,Agapanthus_Postbloom2.y4m,1208x948,24,8,110,0, KEY ,1,110,44745,42.959851,43.938424,46.226007,26.489203,24.527448,92.961545,91.479456,43.401916,42.693285,3.432160
STILL,aom,av2,0,F2,Agapanthus_Postbloom2.y4m,1208x948,24,8,135,0, KEY ,1,135,25062,39.063874,40.481617,43.873409,22.303587,21.130646,86.122252,84.081822,38.416222,39.500342,2.789626
STILL,aom,av2,0,F2,Agapanthus_Postbloom2.y4m,1208x948,24,8,160,0, KEY ,1,160,13128,34.835203,36.686137,41.321783,17.816181,17.216375,71.180278,68.595539,32.828486,35.787356,2.271453
STILL,aom,av2,0,F2,Agapanthus_Postbloom2.y4m,1208x948,24,8,185,0, KEY ,1,185,6248,30.630741,32.836297,38.902310,13.267906,13.146180,45.515981,43.363626,27.352015,31.970365,1.902464
STILL,aom,av2,0,F2,Baruch.y4m,968x1188,24,8,60,0, KEY ,1,60,637615,48.424894,51.144065,52.657256,37.202490,36.703399,96.946459,95.835872,52.730497,46.537320,0.000077
STILL,aom,av2,0,F2,Baruch.y4m,968x1188,24,8,85,0, KEY ,1,85,478687,42.791775,49.720502,50.821433,31.515149,31.548170,95.776284,94.292258,50.093575,43.016103,0.000082
STILL,aom,av2,0,F2,Baruch.y4m,968x1188,24,8,110,0, KEY ,1,110,336168,36.744324,46.483130,47.447891,25.448107,25.581051,92.629904,90.638503,45.424860,38.251488,0.000079
STILL,aom,av2,0,F2,Baruch.y4m,968x1188,24,8,135,0, KEY ,1,135,209763,30.919929,43.297116,46.644330,19.285463,19.473358,84.260885,81.782520,38.431533,33.435020,0.000025
STILL,aom,av2,0,F2,Baruch.y4m,968x1188,24,8,160,0, KEY ,1,160,100019,25.026426,43.359395,44.332869,12.978411,13.232686,64.333522,61.739340,29.738193,28.601878,0.000018
STILL,aom,av2,0,F2,Baruch.y4m,968x1188,24,8,185,0, KEY ,1,185,27879,20.270560,40.694116,41.959510,7.494845,7.818614,35.669754,34.055943,22.424386,23.949573,0.000031
STILL,aom,av2,0,F2,Berlin-Fernsehturm.y4m,1290x856,24,8,60,0, KEY ,1,60,108295,49.548294,51.039663,50.655266,28.439661,27.766505,96.794814,95.900911,48.195075,46.332163,3.117253
STILL,aom,av2,0,F2,Berlin-Fernsehturm.y4m,1290x856,24,8,85,0, KEY ,1,85,53368,46.482271,49.278361,48.381944,24.202397,24.290945,95.396563,94.243514,45.402985,44.371948,8.501418
STILL,aom,av2,0,F2,Berlin-Fernsehturm.y4m,1290x856,24,8,110,0, KEY ,1,110,26489,43.134023,47.267105,45.842419,20.966374,21.269420,91.906754,90.373550,42.258624,42.472418,9.283513
STILL,aom,av2,0,F2,Berlin-Fernsehturm.y4m,1290x856,24,8,135,0, KEY ,1,135,12274,39.579923,44.804934,43.380497,17.717504,18.163152,83.735127,81.800269,38.376466,40.382559,9.410557
STILL,aom,av2,0,F2,Berlin-Fernsehturm.y4m,1290x856,24,8,160,0, KEY ,1,160,5064,36.079056,42.015854,40.935103,14.548790,15.107482,67.786926,65.590428,34.214302,37.933302,7.649406
STILL,aom,av2,0,F2,Berlin-Fernsehturm.y4m,1290x856,24,8,185,0, KEY ,1,185,1812,32.782415,39.638486,39.013161,11.396531,12.056172,39.551967,37.757041,30.019642,35.226274,6.031290
STILL,aom,av2,0,F2,Big_Easy_chair.y4m,1196x1008,24,8,60,0, KEY ,1,60,103122,48.434714,48.260328,48.680478,31.109102,27.091083,96.819113,96.001360,48.119661,46.874910,0.087248
STILL,aom,av2,0,F2,Big_Easy_chair.y4m,1196x1008,24,8,85,0, KEY ,1,85,25220,45.873369,46.184164,47.342191,25.444569,23.075524,95.807073,94.596997,44.388321,44.699221,2.727439
STILL,aom,av2,0,F2,Big_Easy_chair.y4m,1196x1008,24,8,110,0, KEY ,1,110,11015,44.319052,45.240003,46.419755,22.112843,20.973801,92.945817,91.300983,42.043653,43.565166,5.647944
STILL,aom,av2,0,F2,Big_Easy_chair.y4m,1196x1008,24,8,135,0, KEY ,1,135,5594,42.407054,43.953107,45.108151,19.642073,19.191898,87.060502,84.556111,39.578105,42.256315,5.767396
STILL,aom,av2,0,F2,Big_Easy_chair.y4m,1196x1008,24,8,160,0, KEY ,1,160,2940,39.717132,41.983129,43.255758,16.862681,16.964756,74.814038,71.854989,36.334588,40.348063,5.135778
STILL,aom,av2,0,F2,Big_Easy_chair.y4m,1196x1008,24,8,185,0, KEY ,1,185,1544,36.289778,39.435050,40.737433,13.936356,14.341691,55.051899,51.656483,32.369351,37.551018,5.001651
STILL,aom,av2,0,F2,Butterfly.y4m,1420x918,24,8,60,0, KEY ,1,60,206261,48.385376,48.959199,50.264546,30.570187,27.098920,96.873000,96.087509,48.235563,45.585461,3.773550
STILL,aom,av2,0,F2,Butterfly.y4m,1420x918,24,8,85,0, KEY ,1,85,66521,43.979310,46.030604,47.787533,26.144218,22.801814,95.876047,94.788856,45.001457,42.729290,11.791504
STILL,aom,av2,0,F2,Butterfly.y4m,1420x918,24,8,110,0, KEY ,1,110,24487,41.657008,44.114524,45.509962,22.772960,20.183803,93.258439,91.560288,41.830212,41.208663,11.659043
STILL,aom,av2,0,F2,Butterfly.y4m,1420x918,24,8,135,0, KEY ,1,135,11618,39.745884,41.875295,43.110101,20.505030,18.746913,86.776182,84.554007,39.056218,39.873321,11.585281
STILL,aom,av2,0,F2,Butterfly.y4m,1420x918,24,8,160,0, KEY ,1,160,5632,37.186006,39.259707,40.186147,17.910492,16.918719,73.912544,71.190696,35.061365,37.989357,9.665386
STILL,aom,av2,0,F2,Butterfly.y4m,1420x918,24,8,185,0, KEY ,1,185,2760,33.998186,36.591998,37.516224,14.632845,14.334534,51.506871,49.137853,30.517886,35.226839,6.518350
STILL,aom,av2,0,F2,Cecret_Lake_Panorama.y4m,1586x752,24,8,60,0, KEY ,1,60,572945,49.197453,49.329374,49.200960,33.419677,32.254470,96.853243,95.961541,52.481666,46.719763,0.016522
STILL,aom,av2,0,F2,Cecret_Lake_Panorama.y4m,1586x752,24,8,85,0, KEY ,1,85,387134,43.658133,44.522530,44.542534,28.205022,27.488347,95.699562,94.448598,48.290900,41.854366,0.047942
STILL,aom,av2,0,F2,Cecret_Lake_Panorama.y4m,1586x752,24,8,110,0, KEY ,1,110,241948,37.713961,40.785682,41.417907,23.141435,22.689989,92.332771,90.792156,42.650525,37.535648,0.071619
STILL,aom,av2,0,F2,Cecret_Lake_Panorama.y4m,1586x752,24,8,135,0, KEY ,1,135,125036,31.707853,37.949204,39.200321,18.068913,17.692499,83.661342,81.840457,36.051118,33.206371,0.092738
STILL,aom,av2,0,F2,Cecret_Lake_Panorama.y4m,1586x752,24,8,160,0, KEY ,1,160,38463,26.518371,35.666664,36.925082,12.674331,12.396808,62.241298,60.562424,28.786233,29.126113,0.098666
STILL,aom,av2,0,F2,Cecret_Lake_Panorama.y4m,1586x752,24,8,185,0, KEY ,1,185,10295,23.723190,33.883990,35.180081,8.153356,8.357058,31.526807,30.195364,23.085194,26.574493,0.259240
STILL,aom,av2,0,F2,Claudette.y4m,900x1100,24,8,60,0, KEY ,1,60,425621,48.916971,49.810879,49.866705,36.678146,32.325973,96.693862,95.753345,52.726009,45.340714,0.035565
STILL,aom,av2,0,F2,Claudette.y4m,900x1100,24,8,85,0, KEY ,1,85,282891,43.062397,47.474230,47.501893,30.485707,26.604835,95.234989,93.970456,48.201743,41.732326,0.101632
STILL,aom,av2,0,F2,Claudette.y4m,900x1100,24,8,110,0, KEY ,1,110,167916,37.263928,44.712531,44.663971,24.354566,20.897227,91.138092,89.565429,41.747113,37.422920,0.117325
STILL,aom,av2,0,F2,Claudette.y4m,900x1100,24,8,135,0, KEY ,1,135,82669,31.884147,42.112582,42.406674,18.490947,15.869544,80.682789,78.912163,35.043109,33.410095,0.202289
STILL,aom,av2,0,F2,Claudette.y4m,900x1100,24,8,160,0, KEY ,1,160,23898,27.084376,40.278472,41.130486,13.137942,11.095587,56.133296,54.518192,28.531205,29.722256,0.434517
STILL,aom,av2,0,F2,Claudette.y4m,900x1100,24,8,185,0, KEY ,1,185,6324,24.560886,39.015175,39.967512,8.461587,7.443657,23.015752,22.267743,23.376211,27.429972,0.627955
STILL,aom,av2,0,F2,Collage_Oppeln.y4m,904x1280,24,8,60,0, KEY ,1,60,343088,49.021885,49.591634,50.089983,35.400540,31.261917,96.946869,96.218563,51.318037,46.590147,0.041396
STILL,aom,av2,0,F2,Collage_Oppeln.y4m,904x1280,24,8,85,0, KEY ,1,85,208958,44.106609,45.812375,46.514888,30.700525,27.116916,96.023046,94.941079,47.665304,42.664159,0.124032
STILL,aom,av2,0,F2,Collage_Oppeln.y4m,904x1280,24,8,110,0, KEY ,1,110,117136,38.988967,42.348447,43.258812,25.816128,22.668972,93.395244,91.946848,42.402176,38.959237,0.164388
STILL,aom,av2,0,F2,Collage_Oppeln.y4m,904x1280,24,8,135,0, KEY ,1,135,57941,34.204596,39.442582,40.284611,20.845073,18.330899,86.623207,84.752749,36.350551,35.510237,0.170458
STILL,aom,av2,0,F2,Collage_Oppeln.y4m,904x1280,24,8,160,0, KEY ,1,160,24402,29.897516,36.442225,37.332365,15.995495,14.168997,71.044755,68.866082,30.220910,32.070958,0.148468
STILL,aom,av2,0,F2,Collage_Oppeln.y4m,904x1280,24,8,185,0, KEY ,1,185,8905,26.327645,34.030534,34.857192,11.319593,10.289178,46.242909,44.020186,24.708698,29.038278,0.124897
STILL,aom,av2,0,F2,Corona_Arch.y4m,1272x922,24,8,60,0, KEY ,1,60,375024,48.508176,48.854471,49.558181,32.934655,29.017857,96.734488,95.788329,50.369363,49.825597,0.004125
STILL,aom,av2,0,F2,Corona_Arch.y4m,1272x922,24,8,85,0, KEY ,1,85,197771,43.229516,46.147503,45.333708,26.725873,23.686727,95.541194,94.202851,45.858261,45.146243,3.065818
STILL,aom,av2,0,F2,Corona_Arch.y4m,1272x922,24,8,110,0, KEY ,1,110,97277,38.438269,43.984225,41.668179,23.102498,20.327622,91.960118,90.225747,41.920343,41.486767,5.997415
STILL,aom,av2,0,F2,Corona_Arch.y4m,1272x922,24,8,135,0, KEY ,1,135,39863,34.202383,41.725113,38.815286,19.139204,16.476710,82.904349,80.834845,36.243898,38.258218,5.763067
STILL,aom,av2,0,F2,Corona_Arch.y4m,1272x922,24,8,160,0, KEY ,1,160,13498,30.810256,39.303422,36.079503,14.451436,12.599730,61.783586,59.917684,30.348215,35.477668,5.401991
STILL,aom,av2,0,F2,Corona_Arch.y4m,1272x922,24,8,185,0, KEY ,1,185,4161,28.248059,36.250642,33.279418,10.228483,9.351114,30.973149,29.845265,25.832117,33.057662,4.921938
STILL,aom,av2,0,F2,Correfocs_Festa_Major_del_Clot.y4m,1306x870,24,8,60,0, KEY ,1,60,242297,48.622124,49.947271,49.700677,30.155267,28.715140,96.603621,95.621618,49.975318,48.900051,0.539649
STILL,aom,av2,0,F2,Correfocs_Festa_Major_del_Clot.y4m,1306x870,24,8,85,0, KEY ,1,85,128326,44.535766,47.109398,46.070420,25.006325,24.312729,94.846311,93.511129,45.918578,45.402854,1.710658
STILL,aom,av2,0,F2,Correfocs_Festa_Major_del_Clot.y4m,1306x870,24,8,110,0, KEY ,1,110,69726,40.592525,44.531634,42.656341,20.616212,20.525540,89.944908,88.243582,41.401687,42.323937,2.113549
STILL,aom,av2,0,F2,Correfocs_Festa_Major_del_Clot.y4m,1306x870,24,8,135,0, KEY ,1,135,35393,36.500019,42.091953,39.310686,16.462858,16.783282,80.052359,77.846324,36.482996,39.190856,2.129532
STILL,aom,av2,0,F2,Correfocs_Festa_Major_del_Clot.y4m,1306x870,24,8,160,0, KEY ,1,160,14224,32.176120,39.402703,35.769026,11.993112,12.663844,58.159346,56.295760,31.099795,35.784830,1.863326
STILL,aom,av2,0,F2,Correfocs_Festa_Major_del_Clot.y4m,1306x870,24,8,185,0, KEY ,1,185,3671,28.469552,37.315051,32.815036,7.840326,8.719611,26.307553,25.226206,26.063081,32.720351,2.320109
STILL,aom,av2,0,F2,Crepuscular_rays_at_Sunset_near_Waterberg_Plateau.y4m,1402x934,24,8,60,0, KEY ,1,60,401131,48.877226,49.466392,49.450543,33.886491,29.898162,96.053853,94.791909,51.432367,47.131976,0.272136
STILL,aom,av2,0,F2,Crepuscular_rays_at_Sunset_near_Waterberg_Plateau.y4m,1402x934,24,8,85,0, KEY ,1,85,233109,43.845082,45.888207,45.706623,28.374013,25.228239,93.404637,91.914766,47.193588,43.026931,0.535437
STILL,aom,av2,0,F2,Crepuscular_rays_at_Sunset_near_Waterberg_Plateau.y4m,1402x934,24,8,110,0, KEY ,1,110,112159,38.244515,43.230296,42.894478,22.729648,19.865689,87.059765,85.261438,41.238065,39.181313,0.590787
STILL,aom,av2,0,F2,Crepuscular_rays_at_Sunset_near_Waterberg_Plateau.y4m,1402x934,24,8,135,0, KEY ,1,135,36015,33.560180,40.941587,40.640130,16.799563,14.397909,71.993122,70.052347,34.704209,35.713772,0.681583
STILL,aom,av2,0,F2,Crepuscular_rays_at_Sunset_near_Waterberg_Plateau.y4m,1402x934,24,8,160,0, KEY ,1,160,9260,30.802593,38.558523,38.279110,11.687880,10.385018,41.625576,40.220445,29.696322,33.188569,0.826709
STILL,aom,av2,0,F2,Crepuscular_rays_at_Sunset_near_Waterberg_Plateau.y4m,1402x934,24,8,185,0, KEY ,1,185,2807,29.151924,35.544247,35.339968,8.206943,7.884211,9.997243,9.577700,26.539885,31.129761,0.973640
STILL,aom,av2,0,F2,Esquibien_Jean_Perrot.y4m,818x1228,24,8,60,0, KEY ,1,60,388223,48.821257,49.542510,49.722880,31.891701,30.761450,96.929529,96.038409,51.407230,46.216553,0.698541
STILL,aom,av2,0,F2,Esquibien_Jean_Perrot.y4m,818x1228,24,8,85,0, KEY ,1,85,243232,43.206443,46.998251,47.008749,26.348261,25.534850,95.881641,94.647374,47.258807,42.621620,0.763270
STILL,aom,av2,0,F2,Esquibien_Jean_Perrot.y4m,818x1228,24,8,110,0, KEY ,1,110,130577,37.169438,44.945094,44.931794,21.226191,20.352244,92.947715,91.288777,41.886880,38.626208,0.607822
STILL,aom,av2,0,F2,Esquibien_Jean_Perrot.y4m,818x1228,24,8,135,0, KEY ,1,135,46129,31.960199,42.189956,42.599042,15.458338,14.677991,85.090968,83.028923,35.019224,34.545756,0.505671
STILL,aom,av2,0,F2,Esquibien_Jean_Perrot.y4m,818x1228,24,8,160,0, KEY ,1,160,13964,28.960509,40.112568,39.950551,11.247204,11.040432,67.584078,65.328342,29.454876,32.006211,0.624090
STILL,aom,av2,0,F2,Esquibien_Jean_Perrot.y4m,818x1228,24,8,185,0, KEY ,1,185,5320,26.820303,38.280240,38.767385,8.763975,9.018729,43.431155,41.483695,25.527416,29.973756,0.786656
STILL,aom,av2,0,F2,Florac-Le_Vibron-Source_du_Pecher.y4m,1080x874,24,8,60,0, KEY ,1,60,474639,48.879982,48.405956,48.342501,33.685350,32.400387,96.927361,96.142390,53.170432,45.174567,0.023406
STILL,aom,av2,0,F2,Florac-Le_Vibron-Source_du_Pecher.y4m,1080x874,24,8,85,0, KEY ,1,85,295160,42.813608,43.821571,43.384181,27.737629,26.566037,95.957714,94.808613,48.152011,40.371627,0.262587
STILL,aom,av2,0,F2,Florac-Le_Vibron-Source_du_Pecher.y4m,1080x874,24,8,110,0, KEY ,1,110,162976,36.876207,40.844394,40.444791,21.682343,20.643817,92.948555,91.432177,41.749161,36.662188,0.292145
STILL,aom,av2,0,F2,Florac-Le_Vibron-Source_du_Pecher.y4m,1080x874,24,8,135,0, KEY ,1,135,77731,31.774005,38.489774,38.715591,16.274801,15.690997,85.101742,83.179725,35.068955,33.172921,0.655427
STILL,aom,av2,0,F2,Florac-Le_Vibron-Source_du_Pecher.y4m,1080x874,24,8,160,0, KEY ,1,160,27351,27.388176,36.010315,36.942565,11.108464,11.116748,66.030495,64.141410,28.627266,29.875720,0.849572
STILL,aom,av2,0,F2,Florac-Le_Vibron-Source_du_Pecher.y4m,1080x874,24,8,185,0, KEY ,1,185,7484,24.312519,33.986459,35.444737,7.154294,7.588275,39.106735,37.719561,23.492996,27.386527,1.024707
STILL,aom,av2,0,F2,Fontaine_Place_Stanislas.y4m,1390x820,24,8,60,0, KEY ,1,60,287395,49.108633,49.047939,50.292660,30.584971,29.592288,96.929664,96.129789,50.157513,45.746131,6.464822
STILL,aom,av2,0,F2,Fontaine_Place_Stanislas.y4m,1390x820,24,8,85,0, KEY ,1,85,171247,44.506267,45.787107,47.161417,26.471477,25.607233,95.872220,94.689173,46.977204,42.713571,6.726615
STILL,aom,av2,0,F2,Fontaine_Place_Stanislas.y4m,1390x820,24,8,110,0, KEY ,1,110,96779,39.764579,42.560625,44.623454,21.626910,21.277657,92.804179,91.193788,42.127164,39.743079,6.758830
STILL,aom,av2,0,F2,Fontaine_Place_Stanislas.y4m,1390x820,24,8,135,0, KEY ,1,135,49859,35.136276,39.805497,42.269363,17.372238,17.456616,85.085993,83.066560,36.927075,36.733463,7.337703
STILL,aom,av2,0,F2,Fontaine_Place_Stanislas.y4m,1390x820,24,8,160,0, KEY ,1,160,20065,30.520635,37.051177,39.725479,13.669865,13.942386,67.724843,65.485798,31.314312,33.375936,7.195414
STILL,aom,av2,0,F2,Fontaine_Place_Stanislas.y4m,1390x820,24,8,185,0, KEY ,1,185,6319,27.001001,34.710935,37.804161,9.911431,10.439275,39.842533,38.316898,25.803364,30.665196,5.590942
STILL,aom,av2,0,F2,Genmaicha_Tea.y4m,1260x840,24,8,60,0, KEY ,1,60,101173,50.144934,51.775822,51.518739,30.815489,30.282330,96.929080,96.198549,48.058415,49.271491,0.001146
STILL,aom,av2,0,F2,Genmaicha_Tea.y4m,1260x840,24,8,85,0, KEY ,1,85,60083,47.433447,49.503560,49.231988,29.042205,28.695702,96.004400,94.965628,47.001136,47.414949,0.001927
STILL,aom,av2,0,F2,Genmaicha_Tea.y4m,1260x840,24,8,110,0, KEY ,1,110,35239,43.534544,47.236359,47.079952,26.649928,26.482234,93.919097,92.373408,45.066897,45.347083,0.000871
STILL,aom,av2,0,F2,Genmaicha_Tea.y4m,1260x840,24,8,135,0, KEY ,1,135,18649,39.054323,44.844319,44.610547,23.452111,23.458490,88.170679,86.167566,40.963329,42.909653,0.001234
STILL,aom,av2,0,F2,Genmaicha_Tea.y4m,1260x840,24,8,160,0, KEY ,1,160,8487,34.719852,41.794428,41.708971,19.486236,19.596428,75.528511,73.076204,34.973639,39.486508,0.000554
STILL,aom,av2,0,F2,Genmaicha_Tea.y4m,1260x840,24,8,185,0, KEY ,1,185,3404,30.965024,39.364256,38.860399,15.520624,15.777282,50.537790,48.267656,29.179241,35.224566,0.000518
STILL,aom,av2,0,F2,Homestead_in_Montana.y4m,1326x826,24,8,60,0, KEY ,1,60,208696,48.907141,49.633628,50.090672,31.299344,29.823909,96.705932,95.740533,50.690254,48.683657,0.278589
STILL,aom,av2,0,F2,Homestead_in_Montana.y4m,1326x826,24,8,85,0, KEY ,1,85,113395,45.224244,46.293261,46.151758,27.778411,26.733759,95.408496,94.073142,47.658910,45.344908,0.561137
STILL,aom,av2,0,F2,Homestead_in_Montana.y4m,1326x826,24,8,110,0, KEY ,1,110,59571,41.137482,43.121363,42.491006,23.365179,22.922417,92.227487,90.216164,42.634269,42.093808,0.606619
STILL,aom,av2,0,F2,Homestead_in_Montana.y4m,1326x826,24,8,135,0, KEY ,1,135,29659,37.118169,40.012061,39.268547,18.839804,18.929846,83.716593,81.321690,36.736189,38.899940,0.668406
STILL,aom,av2,0,F2,Homestead_in_Montana.y4m,1326x826,24,8,160,0, KEY ,1,160,13342,33.231539,36.793320,36.035217,14.235234,14.802787,64.054178,61.935573,30.935556,35.555588,0.586425
STILL,aom,av2,0,F2,Homestead_in_Montana.y4m,1326x826,24,8,185,0, KEY ,1,185,5320,29.684433,33.731748,32.957745,10.086733,10.955654,35.837695,33.982626,25.986303,32.328008,0.709758
STILL,aom,av2,0,F2,Madeira_151_Funchal_Mercado_dos_Lavradores.y4m,1228x816,24,8,60,0, KEY ,1,60,326378,48.569644,48.765914,48.759979,34.434673,31.879620,96.891918,96.147690,53.443516,47.575765,0.339214
STILL,aom,av2,0,F2,Madeira_151_Funchal_Mercado_dos_Lavradores.y4m,1228x816,24,8,85,0, KEY ,1,85,178859,43.526719,44.299368,44.626504,28.654917,26.742623,95.706913,94.616710,48.219943,43.005741,0.367053
STILL,aom,av2,0,F2,Madeira_151_Funchal_Mercado_dos_Lavradores.y4m,1228x816,24,8,110,0, KEY ,1,110,91255,38.935496,40.399263,41.118411,23.226245,21.972325,92.699348,91.087116,41.620965,39.135676,0.333647
STILL,aom,av2,0,F2,Madeira_151_Funchal_Mercado_dos_Lavradores.y4m,1228x816,24,8,135,0, KEY ,1,135,44302,34.900842,37.015210,37.964618,18.177490,17.667897,84.642423,82.851209,35.165237,35.697320,0.488548
STILL,aom,av2,0,F2,Madeira_151_Funchal_Mercado_dos_Lavradores.y4m,1228x816,24,8,160,0, KEY ,1,160,19964,31.101196,33.854200,34.873514,13.573732,13.733801,67.501667,65.537912,29.284591,32.406670,0.647742
STILL,aom,av2,0,F2,Madeira_151_Funchal_Mercado_dos_Lavradores.y4m,1228x816,24,8,185,0, KEY ,1,185,8080,27.560043,30.961060,31.895924,9.308879,9.977108,38.368779,37.010082,24.205541,29.183218,0.629315
STILL,aom,av2,0,F2,Madeira_159_Funchal_Mercado_dos_Lavradores.y4m,1228x816,24,8,60,0, KEY ,1,60,500671,48.707638,48.732373,48.636741,35.822554,33.631089,97.038055,96.373509,53.833801,45.666256,0.018641
STILL,aom,av2,0,F2,Madeira_159_Funchal_Mercado_dos_Lavradores.y4m,1228x816,24,8,85,0, KEY ,1,85,323025,42.917249,44.231934,43.564897,29.959091,28.041050,96.251463,95.220368,48.992589,40.966421,0.079388
STILL,aom,av2,0,F2,Madeira_159_Funchal_Mercado_dos_Lavradores.y4m,1228x816,24,8,110,0, KEY ,1,110,183365,37.122139,40.119109,39.071496,23.895813,22.230739,93.807913,92.327600,42.263358,36.598802,0.112333
STILL,aom,av2,0,F2,Madeira_159_Funchal_Mercado_dos_Lavradores.y4m,1228x816,24,8,135,0, KEY ,1,135,89871,32.086853,36.526955,35.666311,18.506464,17.360576,87.048126,85.211553,35.468549,32.765694,0.244640
STILL,aom,av2,0,F2,Madeira_159_Funchal_Mercado_dos_Lavradores.y4m,1228x816,24,8,160,0, KEY ,1,160,36496,27.640522,33.251824,32.980050,14.079909,13.611514,70.721743,68.773725,29.192233,29.210330,0.421674
STILL,aom,av2,0,F2,Madeira_159_Funchal_Mercado_dos_Lavradores.y4m,1228x816,24,8,185,0, KEY ,1,185,12953,24.059917,30.811321,30.683633,10.035911,10.032659,46.140719,44.267463,23.285763,26.295359,0.471434
STILL,aom,av2,0,F2,MagicKindom.y4m,1000x1000,24,8,60,0, KEY ,1,60,573192,48.893546,48.183568,48.222409,38.607321,34.379856,96.927496,96.144981,54.581069,48.066480,0.000000
STILL,aom,av2,0,F2,MagicKindom.y4m,1000x1000,24,8,85,0, KEY ,1,85,368149,42.580625,43.348516,43.313345,32.133609,27.808918,95.936937,94.778338,48.993193,42.435114,0.005519
STILL,aom,av2,0,F2,MagicKindom.y4m,1000x1000,24,8,110,0, KEY ,1,110,217059,36.585835,40.426534,40.364966,25.552357,22.037148,92.859826,91.290099,42.465863,37.772362,0.737769
STILL,aom,av2,0,F2,MagicKindom.y4m,1000x1000,24,8,135,0, KEY ,1,135,103717,30.910968,38.103912,37.907343,20.093626,16.922647,85.203057,83.115957,35.421377,33.252209,0.677943
STILL,aom,av2,0,F2,MagicKindom.y4m,1000x1000,24,8,160,0, KEY ,1,160,35588,26.419912,35.587369,35.638983,14.781900,12.039977,65.826754,63.789019,28.287321,29.363369,0.775331
STILL,aom,av2,0,F2,MagicKindom.y4m,1000x1000,24,8,185,0, KEY ,1,185,10264,23.358370,33.456853,34.126926,9.495081,7.879584,35.531068,34.413601,22.394957,26.550392,0.866168
STILL,aom,av2,0,F2,Michigan_Stadium.y4m,1400x934,24,8,60,0, KEY ,1,60,684521,48.907452,49.085679,49.226975,37.600813,32.837767,97.078139,96.379006,53.149229,47.351214,0.044877
STILL,aom,av2,0,F2,Michigan_Stadium.y4m,1400x934,24,8,85,0, KEY ,1,85,477789,43.659170,44.117779,44.222138,32.646298,28.561449,96.297415,95.246295,49.088794,42.451813,0.076443
STILL,aom,av2,0,F2,Michigan_Stadium.y4m,1400x934,24,8,110,0, KEY ,1,110,311073,38.116075,38.810011,39.215932,27.456919,24.355427,94.041893,92.507404,43.518752,37.669120,0.152138
STILL,aom,av2,0,F2,Michigan_Stadium.y4m,1400x934,24,8,135,0, KEY ,1,135,180753,32.478646,33.743116,35.719212,22.330730,19.981652,87.595877,85.670998,36.888806,33.215430,0.205763
STILL,aom,av2,0,F2,Michigan_Stadium.y4m,1400x934,24,8,160,0, KEY ,1,160,80461,26.642078,30.188157,33.225424,17.042691,15.247316,71.123722,68.980200,29.682455,28.915603,0.184933
STILL,aom,av2,0,F2,Michigan_Stadium.y4m,1400x934,24,8,185,0, KEY ,1,185,24919,22.217180,27.785723,31.361966,11.413728,10.114893,41.683906,40.117368,22.631124,25.283658,0.172956
STILL,aom,av2,0,F2,OperaLamps.y4m,1296x864,24,8,60,0, KEY ,1,60,464933,48.854829,48.823813,48.815396,35.444751,33.431163,96.855765,96.057817,53.885854,45.639251,0.913571
STILL,aom,av2,0,F2,OperaLamps.y4m,1296x864,24,8,85,0, KEY ,1,85,288459,43.657155,43.521734,43.510792,30.407671,28.808113,95.616578,94.461135,49.428969,40.611657,1.274789
STILL,aom,av2,0,F2,OperaLamps.y4m,1296x864,24,8,110,0, KEY ,1,110,160393,38.424193,38.877981,38.951535,25.080656,23.945684,92.465209,90.826782,42.886798,36.266374,1.204401
STILL,aom,av2,0,F2,OperaLamps.y4m,1296x864,24,8,135,0, KEY ,1,135,79654,33.528678,35.130490,35.523338,19.791036,19.043364,84.289649,82.235431,35.630154,32.526451,0.999357
STILL,aom,av2,0,F2,OperaLamps.y4m,1296x864,24,8,160,0, KEY ,1,160,34515,29.048337,32.055887,33.060154,14.466997,14.197669,65.012221,63.115833,28.715124,29.106321,0.787297
STILL,aom,av2,0,F2,OperaLamps.y4m,1296x864,24,8,185,0, KEY ,1,185,12224,25.148315,29.695426,31.124688,9.158014,9.457311,33.477957,32.083375,22.688587,25.994596,0.782729
STILL,aom,av2,0,F2,Orion_Nebula.y4m,1200x840,24,8,60,0, KEY ,1,60,132905,48.534471,49.776868,50.321347,29.667775,27.872948,95.978020,94.738287,49.950318,47.442723,0.000210
STILL,aom,av2,0,F2,Orion_Nebula.y4m,1200x840,24,8,85,0, KEY ,1,85,49700,44.855935,47.435077,47.746526,23.458765,22.756757,93.264383,91.804705,44.782255,44.451153,0.015713
STILL,aom,av2,0,F2,Orion_Nebula.y4m,1200x840,24,8,110,0, KEY ,1,110,20777,42.144273,45.315844,45.359898,18.628127,18.940295,86.845220,85.202568,40.024365,42.121282,0.166612
STILL,aom,av2,0,F2,Orion_Nebula.y4m,1200x840,24,8,135,0, KEY ,1,135,8934,39.560497,43.267517,42.751239,14.837725,15.717898,72.491198,70.956565,36.126031,39.880886,0.458936
STILL,aom,av2,0,F2,Orion_Nebula.y4m,1200x840,24,8,160,0, KEY ,1,160,3622,36.737647,41.319627,40.184800,11.576323,12.713845,47.914332,46.376549,32.690536,37.564849,1.099264
STILL,aom,av2,0,F2,Orion_Nebula.y4m,1200x840,24,8,185,0, KEY ,1,185,1357,33.968305,39.211020,37.953389,9.115703,10.157142,17.558922,17.241419,29.631987,35.111857,1.673150
STILL,aom,av2,0,F2,Saint_Catherine-Caravaggio.y4m,876x1140,24,8,60,0, KEY ,1,60,300866,48.626019,49.587279,50.118135,30.808000,29.289130,96.930929,96.259845,50.808985,46.302236,0.000511
STILL,aom,av2,0,F2,Saint_Catherine-Caravaggio.y4m,876x1140,24,8,85,0, KEY ,1,85,137267,42.271167,47.346042,47.753434,23.876241,22.534096,96.097179,95.057918,45.342953,42.859200,1.401164
STILL,aom,av2,0,F2,Saint_Catherine-Caravaggio.y4m,876x1140,24,8,110,0, KEY ,1,110,50530,38.035041,45.315251,45.453946,18.743885,17.995024,93.408557,91.904025,40.156000,40.031457,4.842237
STILL,aom,av2,0,F2,Saint_Catherine-Caravaggio.y4m,876x1140,24,8,135,0, KEY ,1,135,20875,35.318941,42.954857,43.014240,15.469451,15.312441,85.583466,83.744133,35.931243,37.889502,6.084873
STILL,aom,av2,0,F2,Saint_Catherine-Caravaggio.y4m,876x1140,24,8,160,0, KEY ,1,160,8796,32.613045,39.873427,40.157244,12.538400,12.897943,69.846389,67.742459,31.709989,35.467666,6.114013
STILL,aom,av2,0,F2,Saint_Catherine-Caravaggio.y4m,876x1140,24,8,185,0, KEY ,1,185,3480,29.771555,36.975754,37.611062,9.803638,10.484836,45.976913,44.183213,27.541449,32.955877,5.928179
STILL,aom,av2,0,F2,Streptopelia_orientalis.y4m,1404x936,24,8,60,0, KEY ,1,60,236496,48.182105,49.673750,50.381568,36.425429,30.139406,96.816466,96.053717,51.659284,47.234163,0.014935
STILL,aom,av2,0,F2,Streptopelia_orientalis.y4m,1404x936,24,8,85,0, KEY ,1,85,120066,44.875679,45.995920,47.371202,31.083114,26.597697,95.565070,94.424231,47.297808,44.005072,0.023605
STILL,aom,av2,0,F2,Streptopelia_orientalis.y4m,1404x936,24,8,110,0, KEY ,1,110,62554,41.413030,42.366723,44.349968,26.038762,22.984620,92.484355,90.772866,41.979931,40.896317,0.015816
STILL,aom,av2,0,F2,Streptopelia_orientalis.y4m,1404x936,24,8,135,0, KEY ,1,135,32399,37.894818,38.951953,41.202883,21.104393,19.244937,84.102744,82.201984,36.475867,37.682060,0.019018
STILL,aom,av2,0,F2,Streptopelia_orientalis.y4m,1404x936,24,8,160,0, KEY ,1,160,16046,34.084281,35.707307,38.303163,16.199389,15.293131,66.025105,63.962810,31.156815,34.286773,0.016757
STILL,aom,av2,0,F2,Streptopelia_orientalis.y4m,1404x936,24,8,185,0, KEY ,1,185,7242,30.201791,32.641461,35.412492,11.468602,11.283280,37.479370,36.263067,26.233405,30.808032,0.022809
STILL,aom,av2,0,F2,Swallowtail.y4m,1300x900,24,8,60,0, KEY ,1,60,298192,48.285461,49.923816,50.585674,34.891210,29.452279,96.973084,96.225387,50.948712,49.173406,0.017089
STILL,aom,av2,0,F2,Swallowtail.y4m,1300x900,24,8,85,0, KEY ,1,85,125165,43.005988,46.794377,47.456515,28.338554,23.654333,95.997117,94.871664,45.895711,44.738514,0.155580
STILL,aom,av2,0,F2,Swallowtail.y4m,1300x900,24,8,110,0, KEY ,1,110,65351,40.090007,43.419924,44.188742,24.592302,21.276455,93.239161,91.542360,41.996901,42.043671,0.268775
STILL,aom,av2,0,F2,Swallowtail.y4m,1300x900,24,8,135,0, KEY ,1,135,33870,36.779726,40.174922,40.929092,20.757442,18.497310,86.151768,83.890766,36.963650,39.153487,0.293203
STILL,aom,av2,0,F2,Swallowtail.y4m,1300x900,24,8,160,0, KEY ,1,160,16365,33.083570,36.759143,37.497455,16.743974,15.423213,70.621567,68.452374,31.454842,35.920231,0.319700
STILL,aom,av2,0,F2,Swallowtail.y4m,1300x900,24,8,185,0, KEY ,1,185,7343,29.405126,33.522905,34.258421,12.628078,12.138026,46.194081,44.287273,26.248424,32.549654,0.417109
STILL,aom,av2,0,F2,Washington_Monument.y4m,1204x904,24,8,60,0, KEY ,1,60,285501,49.019003,50.259448,50.175836,33.971568,29.953212,96.741367,95.655257,50.999645,47.049390,0.455020
STILL,aom,av2,0,F2,Washington_Monument.y4m,1204x904,24,8,85,0, KEY ,1,85,177403,44.297401,48.032443,47.783792,28.282067,25.220828,95.345674,93.970947,46.848696,43.935971,0.582754
STILL,aom,av2,0,F2,Washington_Monument.y4m,1204x904,24,8,110,0, KEY ,1,110,100823,39.173028,45.476431,45.649936,22.651014,20.400625,91.383758,89.755116,41.436905,40.651786,0.587171
STILL,aom,av2,0,F2,Washington_Monument.y4m,1204x904,24,8,135,0, KEY ,1,135,47936,34.291237,43.102869,43.545552,17.591675,15.924953,81.578098,79.742871,35.933437,37.297424,0.537252
STILL,aom,av2,0,F2,Washington_Monument.y4m,1204x904,24,8,160,0, KEY ,1,160,16140,29.970688,40.235537,41.427546,13.345471,12.263222,60.315771,58.630120,30.749476,33.804238,0.422555
STILL,aom,av2,0,F2,Washington_Monument.y4m,1204x904,24,8,185,0, KEY ,1,185,4261,27.105030,37.620134,39.257946,9.712072,9.195114,30.880604,29.861767,26.208667,31.087307,0.388817
STILL,aom,av2,0,F2,Wasserfassstelle_von_1898_im_Schanerloch.y4m,816x1150,24,8,60,0, KEY ,1,60,396095,48.790024,49.452694,49.565044,34.396037,32.419758,96.922350,96.098926,52.717174,46.989948,0.001122
STILL,aom,av2,0,F2,Wasserfassstelle_von_1898_im_Schanerloch.y4m,816x1150,24,8,85,0, KEY ,1,85,256044,43.105566,46.801653,47.133494,28.413354,26.722749,95.853302,94.694873,48.290562,43.057058,0.009086
STILL,aom,av2,0,F2,Wasserfassstelle_von_1898_im_Schanerloch.y4m,816x1150,24,8,110,0, KEY ,1,110,153938,37.511954,44.843489,45.307647,22.408547,21.396256,92.649695,91.134105,42.250035,39.110979,0.020738
STILL,aom,av2,0,F2,Wasserfassstelle_von_1898_im_Schanerloch.y4m,816x1150,24,8,135,0, KEY ,1,135,78474,32.246961,42.510264,42.946276,17.057351,16.674691,84.571867,82.566727,35.685085,34.909571,0.075967
STILL,aom,av2,0,F2,Wasserfassstelle_von_1898_im_Schanerloch.y4m,816x1150,24,8,160,0, KEY ,1,160,29504,27.538556,38.765242,38.880221,12.195630,12.310500,64.391415,62.350827,29.057396,30.665056,0.234511
STILL,aom,av2,0,F2,Wasserfassstelle_von_1898_im_Schanerloch.y4m,816x1150,24,8,185,0, KEY ,1,185,8956,24.273744,36.459484,36.820061,8.041510,8.530968,34.624464,33.372226,23.374147,27.537919,0.442163
STILL,aom,av2,0,F2,Zoo_de_la_Barben.y4m,1296x864,24,8,60,0, KEY ,1,60,125740,47.844930,49.995764,50.136873,28.167684,26.894873,96.693876,95.751045,47.976040,44.573642,5.445705
STILL,aom,av2,0,F2,Zoo_de_la_Barben.y4m,1296x864,24,8,85,0, KEY ,1,85,57996,45.390188,47.890852,47.875362,25.830971,24.854860,95.402005,94.118130,46.328817,43.047574,9.591196
STILL,aom,av2,0,F2,Zoo_de_la_Barben.y4m,1296x864,24,8,110,0, KEY ,1,110,27112,42.342273,45.682791,45.567832,22.931095,22.289965,92.178191,90.275850,43.266660,41.558350,9.555451
STILL,aom,av2,0,F2,Zoo_de_la_Barben.y4m,1296x864,24,8,135,0, KEY ,1,135,11534,39.151251,43.368479,43.125353,19.031401,18.988703,84.909978,82.260578,38.656712,39.865435,8.968766
STILL,aom,av2,0,F2,Zoo_de_la_Barben.y4m,1296x864,24,8,160,0, KEY ,1,160,4679,36.130770,40.899158,40.568307,14.955964,15.494747,66.700614,64.252536,33.856230,37.795033,7.379938
STILL,aom,av2,0,F2,Zoo_de_la_Barben.y4m,1296x864,24,8,185,0, KEY ,1,185,1891,33.353987,38.132133,37.681848,11.568950,12.324678,43.806606,41.360080,29.839982,34.948605,6.693664
